1998 [main] INFO  o.s.b.t.c.SpringBootTestContextBootstrapper - Neither @ContextConfiguration nor @ContextHierarchy found for test class [com.laymanlearn.Spring.Boot.Logback.Config.SpringBootLogbackConfigApplicationTests], using SpringBootContextLoader
2030 [main] INFO  o.s.t.c.s.AbstractContextLoader - Could not detect default resource locations for test class [com.laymanlearn.Spring.Boot.Logback.Config.SpringBootLogbackConfigApplicationTests]: no resource found for suffixes {-context.xml, Context.groovy}.
2030 [main] INFO  o.s.t.c.s.AnnotationConfigContextLoaderUtils - Could not detect default configuration classes for test class [com.laymanlearn.Spring.Boot.Logback.Config.SpringBootLogbackConfigApplicationTests]: SpringBootLogbackConfigApplicationTests does not declare any static, non-private, non-final, nested classes annotated with @Configuration.
2662 [main] INFO  o.s.b.t.c.SpringBootTestContextBootstrapper - Found @SpringBootConfiguration com.laymanlearn.Spring.Boot.Logback.Config.SpringBootLogbackConfigApplication for test class com.laymanlearn.Spring.Boot.Logback.Config.SpringBootLogbackConfigApplicationTests
3229 [main] INFO  o.s.b.t.c.SpringBootTestContextBootstrapper - Loaded default TestExecutionListener class names from location [META-INF/spring.factories]: [org.springframework.boot.test.mock.mockito.MockitoTestExecutionListener, org.springframework.boot.test.mock.mockito.ResetMocksTestExecutionListener, org.springframework.boot.test.autoconfigure.restdocs.RestDocsTestExecutionListener, org.springframework.boot.test.autoconfigure.web.client.MockRestServiceServerResetTestExecutionListener, org.springframework.boot.test.autoconfigure.web.servlet.MockMvcPrintOnlyOnFailureTestExecutionListener, org.springframework.boot.test.autoconfigure.web.servlet.WebDriverTestExecutionListener, org.springframework.boot.test.autoconfigure.webservices.client.MockWebServiceServerTestExecutionListener, org.springframework.test.context.web.ServletTestExecutionListener, org.springframework.test.context.support.DirtiesContextBeforeModesTestExecutionListener, org.springframework.test.context.event.ApplicationEventsTestExecutionListener, org.springframework.test.context.support.DependencyInjectionTestExecutionListener, org.springframework.test.context.support.DirtiesContextTestExecutionListener, org.springframework.test.context.transaction.TransactionalTestExecutionListener, org.springframework.test.context.jdbc.SqlScriptsTestExecutionListener, org.springframework.test.context.event.EventPublishingTestExecutionListener]
3301 [main] INFO  o.s.b.t.c.SpringBootTestContextBootstrapper - Using TestExecutionListeners: [org.springframework.test.context.web.ServletTestExecutionListener@416c58f5, org.springframework.test.context.support.DirtiesContextBeforeModesTestExecutionListener@5505ae1a, org.springframework.test.context.event.ApplicationEventsTestExecutionListener@73cd37c0, org.springframework.boot.test.mock.mockito.MockitoTestExecutionListener@21337f7b, org.springframework.boot.test.autoconfigure.SpringBootDependencyInjectionTestExecutionListener@2bb3058, org.springframework.test.context.support.DirtiesContextTestExecutionListener@7a362b6b, org.springframework.test.context.event.EventPublishingTestExecutionListener@60df60da, org.springframework.boot.test.mock.mockito.ResetMocksTestExecutionListener@5a2d131d, org.springframework.boot.test.autoconfigure.restdocs.RestDocsTestExecutionListener@14fc1f0, org.springframework.boot.test.autoconfigure.web.client.MockRestServiceServerResetTestExecutionListener@4ae9cfc1, org.springframework.boot.test.autoconfigure.web.servlet.MockMvcPrintOnlyOnFailureTestExecutionListener@512baff6, org.springframework.boot.test.autoconfigure.web.servlet.WebDriverTestExecutionListener@632ceb35, org.springframework.boot.test.autoconfigure.webservices.client.MockWebServiceServerTestExecutionListener@1c93f6e1]
5257 [main] INFO  c.l.S.B.L.C.SpringBootLogbackConfigApplicationTests - Starting SpringBootLogbackConfigApplicationTests using Java 1.8.0_311 on Damon with PID 1592 (started by damod in D:\WORKSTATION\Git Contribution\spring-boot-sample-projects\Spring-Boot-Logback-Config)
5378 [main] DEBUG c.l.S.B.L.C.SpringBootLogbackConfigApplicationTests - Running with Spring Boot v2.7.5, Spring v5.3.23
5378 [main] INFO  c.l.S.B.L.C.SpringBootLogbackConfigApplicationTests - No active profile set, falling back to 1 default profile: "default"
14983 [main] INFO  c.l.S.B.L.C.SpringBootLogbackConfigApplicationTests - Started SpringBootLogbackConfigApplicationTests in 11.432 seconds (JVM running for 18.877)
5501 [main] INFO  c.l.S.B.L.C.SpringBootLogbackConfigApplication - Starting SpringBootLogbackConfigApplication using Java 1.8.0_311 on Damon with PID 13980 (D:\WORKSTATION\Git Contribution\spring-boot-sample-projects\Spring-Boot-Logback-Config\target\classes started by damod in D:\WORKSTATION\Git Contribution\spring-boot-sample-projects\Spring-Boot-Logback-Config)
5626 [main] DEBUG c.l.S.B.L.C.SpringBootLogbackConfigApplication - Running with Spring Boot v2.7.5, Spring v5.3.23
5626 [main] INFO  c.l.S.B.L.C.SpringBootLogbackConfigApplication - No active profile set, falling back to 1 default profile: "default"
9916 [main] INFO  o.s.b.w.e.tomcat.TomcatWebServer - Tomcat initialized with port(s): 8083 (http)
9947 [main] INFO  o.a.coyote.http11.Http11NioProtocol - Initializing ProtocolHandler ["http-nio-8083"]
9963 [main] INFO  o.a.catalina.core.StandardService - Starting service [Tomcat]
9963 [main] INFO  o.a.catalina.core.StandardEngine - Starting Servlet engine: [Apache Tomcat/9.0.68]
10628 [main] INFO  o.a.c.c.C.[.[localhost].[/logsdata] - Initializing Spring embedded WebApplicationContext
10628 [main] INFO  o.s.b.w.s.c.ServletWebServerApplicationContext - Root WebApplicationContext: initialization completed in 4736 ms
12407 [main] INFO  o.a.coyote.http11.Http11NioProtocol - Starting ProtocolHandler ["http-nio-8083"]
12740 [main] INFO  o.s.b.w.e.tomcat.TomcatWebServer - Tomcat started on port(s): 8083 (http) with context path '/logsdata'
12787 [main] INFO  c.l.S.B.L.C.SpringBootLogbackConfigApplication - Started SpringBootLogbackConfigApplication in 10.008 seconds (JVM running for 14.386)
3677479 [http-nio-8083-exec-1] INFO  o.a.c.c.C.[.[localhost].[/logsdata] - Initializing Spring DispatcherServlet 'dispatcherServlet'
3677495 [http-nio-8083-exec-1] INFO  o.s.web.servlet.DispatcherServlet - Initializing Servlet 'dispatcherServlet'
3677615 [http-nio-8083-exec-1] INFO  o.s.web.servlet.DispatcherServlet - Completed initialization in 116 ms
3678046 [http-nio-8083-exec-1] INFO  c.l.S.B.L.C.c.LogdataController - Added info log
3678076 [http-nio-8083-exec-1] WARN  c.l.S.B.L.C.c.LogdataController - Added info warn
3678077 [http-nio-8083-exec-1] ERROR c.l.S.B.L.C.c.LogdataController - Added info error
3716204 [http-nio-8083-exec-6] INFO  c.l.S.B.L.C.c.LogdataController - Added info log
3716205 [http-nio-8083-exec-6] WARN  c.l.S.B.L.C.c.LogdataController - Added info warn
3716205 [http-nio-8083-exec-6] ERROR c.l.S.B.L.C.c.LogdataController - Added info error
3886247 [http-nio-8083-exec-9] INFO  c.l.S.B.L.C.c.LogdataController - Added info log
3886252 [http-nio-8083-exec-9] WARN  c.l.S.B.L.C.c.LogdataController - Added info warn
3886253 [http-nio-8083-exec-9] ERROR c.l.S.B.L.C.c.LogdataController - Added info error
4548391 [http-nio-8083-exec-4] INFO  c.l.S.B.L.C.c.LogdataController - Added info log
4548396 [http-nio-8083-exec-4] WARN  c.l.S.B.L.C.c.LogdataController - Added info warn
4548397 [http-nio-8083-exec-4] ERROR c.l.S.B.L.C.c.LogdataController - Added info error
4563326 [http-nio-8083-exec-8] INFO  c.l.S.B.L.C.c.LogdataController - Added info log
4563327 [http-nio-8083-exec-8] WARN  c.l.S.B.L.C.c.LogdataController - Added info warn
4563329 [http-nio-8083-exec-8] ERROR c.l.S.B.L.C.c.LogdataController - Added info error
4843886 [http-nio-8083-exec-10] INFO  c.l.S.B.L.C.c.LogdataController - Added info log
4843887 [http-nio-8083-exec-10] WARN  c.l.S.B.L.C.c.LogdataController - Added info warn
4843889 [http-nio-8083-exec-10] ERROR c.l.S.B.L.C.c.LogdataController - Added info error
4853811 [http-nio-8083-exec-4] INFO  c.l.S.B.L.C.c.LogdataController - Added info log
4853812 [http-nio-8083-exec-4] WARN  c.l.S.B.L.C.c.LogdataController - Added info warn
4853817 [http-nio-8083-exec-4] ERROR c.l.S.B.L.C.c.LogdataController - Added info error
5310 [main] INFO  c.l.S.B.L.C.SpringBootLogbackConfigApplication - Starting SpringBootLogbackConfigApplication using Java 1.8.0_311 on Damon with PID 716 (D:\WORKSTATION\Git Contribution\spring-boot-sample-projects\Spring-Boot-Logback-Config\target\classes started by damod in D:\WORKSTATION\Git Contribution\spring-boot-sample-projects\Spring-Boot-Logback-Config)
5455 [main] DEBUG c.l.S.B.L.C.SpringBootLogbackConfigApplication - Running with Spring Boot v2.7.5, Spring v5.3.23
5459 [main] INFO  c.l.S.B.L.C.SpringBootLogbackConfigApplication - No active profile set, falling back to 1 default profile: "default"
12021 [main] INFO  o.s.b.w.e.tomcat.TomcatWebServer - Tomcat initialized with port(s): 8083 (http)
12063 [main] INFO  o.a.coyote.http11.Http11NioProtocol - Initializing ProtocolHandler ["http-nio-8083"]
12066 [main] INFO  o.a.catalina.core.StandardService - Starting service [Tomcat]
12066 [main] INFO  o.a.catalina.core.StandardEngine - Starting Servlet engine: [Apache Tomcat/9.0.68]
12976 [main] INFO  o.a.c.c.C.[.[localhost].[/logsdata] - Initializing Spring embedded WebApplicationContext
12976 [main] INFO  o.s.b.w.s.c.ServletWebServerApplicationContext - Root WebApplicationContext: initialization completed in 7039 ms
14722 [main] INFO  o.a.coyote.http11.Http11NioProtocol - Starting ProtocolHandler ["http-nio-8083"]
15031 [main] INFO  o.s.b.w.e.tomcat.TomcatWebServer - Tomcat started on port(s): 8083 (http) with context path '/logsdata'
15075 [main] INFO  c.l.S.B.L.C.SpringBootLogbackConfigApplication - Started SpringBootLogbackConfigApplication in 12.099 seconds (JVM running for 18.549)
148522 [http-nio-8083-exec-1] INFO  o.a.c.c.C.[.[localhost].[/logsdata] - Initializing Spring DispatcherServlet 'dispatcherServlet'
148524 [http-nio-8083-exec-1] INFO  o.s.web.servlet.DispatcherServlet - Initializing Servlet 'dispatcherServlet'
148531 [http-nio-8083-exec-1] INFO  o.s.web.servlet.DispatcherServlet - Completed initialization in 7 ms
148687 [http-nio-8083-exec-1] INFO  c.l.S.B.L.C.c.LogdataController - Added info log
148694 [http-nio-8083-exec-1] WARN  c.l.S.B.L.C.c.LogdataController - Added info warn
148695 [http-nio-8083-exec-1] ERROR c.l.S.B.L.C.c.LogdataController - Added info error
1592 [main] INFO  o.s.b.t.c.SpringBootTestContextBootstrapper - Neither @ContextConfiguration nor @ContextHierarchy found for test class [com.laymanlearn.Spring.Boot.Logback.Config.SpringBootLogbackConfigApplicationTests], using SpringBootContextLoader
1619 [main] INFO  o.s.t.c.s.AbstractContextLoader - Could not detect default resource locations for test class [com.laymanlearn.Spring.Boot.Logback.Config.SpringBootLogbackConfigApplicationTests]: no resource found for suffixes {-context.xml, Context.groovy}.
1621 [main] INFO  o.s.t.c.s.AnnotationConfigContextLoaderUtils - Could not detect default configuration classes for test class [com.laymanlearn.Spring.Boot.Logback.Config.SpringBootLogbackConfigApplicationTests]: SpringBootLogbackConfigApplicationTests does not declare any static, non-private, non-final, nested classes annotated with @Configuration.
2106 [main] INFO  o.s.b.t.c.SpringBootTestContextBootstrapper - Found @SpringBootConfiguration com.laymanlearn.Spring.Boot.Logback.Config.SpringBootLogbackConfigApplication for test class com.laymanlearn.Spring.Boot.Logback.Config.SpringBootLogbackConfigApplicationTests
2562 [main] INFO  o.s.b.t.c.SpringBootTestContextBootstrapper - Loaded default TestExecutionListener class names from location [META-INF/spring.factories]: [org.springframework.boot.test.mock.mockito.MockitoTestExecutionListener, org.springframework.boot.test.mock.mockito.ResetMocksTestExecutionListener, org.springframework.boot.test.autoconfigure.restdocs.RestDocsTestExecutionListener, org.springframework.boot.test.autoconfigure.web.client.MockRestServiceServerResetTestExecutionListener, org.springframework.boot.test.autoconfigure.web.servlet.MockMvcPrintOnlyOnFailureTestExecutionListener, org.springframework.boot.test.autoconfigure.web.servlet.WebDriverTestExecutionListener, org.springframework.boot.test.autoconfigure.webservices.client.MockWebServiceServerTestExecutionListener, org.springframework.test.context.web.ServletTestExecutionListener, org.springframework.test.context.support.DirtiesContextBeforeModesTestExecutionListener, org.springframework.test.context.event.ApplicationEventsTestExecutionListener, org.springframework.test.context.support.DependencyInjectionTestExecutionListener, org.springframework.test.context.support.DirtiesContextTestExecutionListener, org.springframework.test.context.transaction.TransactionalTestExecutionListener, org.springframework.test.context.jdbc.SqlScriptsTestExecutionListener, org.springframework.test.context.event.EventPublishingTestExecutionListener]
2622 [main] INFO  o.s.b.t.c.SpringBootTestContextBootstrapper - Using TestExecutionListeners: [org.springframework.test.context.web.ServletTestExecutionListener@291a7e3c, org.springframework.test.context.support.DirtiesContextBeforeModesTestExecutionListener@ca30bc1, org.springframework.test.context.event.ApplicationEventsTestExecutionListener@1046d517, org.springframework.boot.test.mock.mockito.MockitoTestExecutionListener@3b7d3a38, org.springframework.boot.test.autoconfigure.SpringBootDependencyInjectionTestExecutionListener@416c58f5, org.springframework.test.context.support.DirtiesContextTestExecutionListener@5505ae1a, org.springframework.test.context.event.EventPublishingTestExecutionListener@73cd37c0, org.springframework.boot.test.mock.mockito.ResetMocksTestExecutionListener@21337f7b, org.springframework.boot.test.autoconfigure.restdocs.RestDocsTestExecutionListener@2bb3058, org.springframework.boot.test.autoconfigure.web.client.MockRestServiceServerResetTestExecutionListener@7a362b6b, org.springframework.boot.test.autoconfigure.web.servlet.MockMvcPrintOnlyOnFailureTestExecutionListener@60df60da, org.springframework.boot.test.autoconfigure.web.servlet.WebDriverTestExecutionListener@5a2d131d, org.springframework.boot.test.autoconfigure.webservices.client.MockWebServiceServerTestExecutionListener@14fc1f0]
4207 [main] INFO  c.l.S.B.L.C.SpringBootLogbackConfigApplicationTests - Starting SpringBootLogbackConfigApplicationTests using Java 1.8.0_311 on Damon with PID 10636 (started by damod in D:\WORKSTATION\Git Contribution\spring-boot-sample-projects\Spring-Boot-Logback-Config)
4308 [main] DEBUG c.l.S.B.L.C.SpringBootLogbackConfigApplicationTests - Running with Spring Boot v2.7.5, Spring v5.3.23
4311 [main] INFO  c.l.S.B.L.C.SpringBootLogbackConfigApplicationTests - No active profile set, falling back to 1 default profile: "default"
9797 [main] INFO  c.l.S.B.L.C.SpringBootLogbackConfigApplicationTests - Started SpringBootLogbackConfigApplicationTests in 7.021 seconds (JVM running for 12.191)
5654 [main] INFO  c.l.S.B.L.C.SpringBootLogbackConfigApplication - Starting SpringBootLogbackConfigApplication using Java 1.8.0_311 on Damon with PID 4516 (D:\WORKSTATION\Git Contribution\spring-boot-sample-projects\Spring-Boot-Logback-Config\target\classes started by damod in D:\WORKSTATION\Git Contribution\spring-boot-sample-projects\Spring-Boot-Logback-Config)
5983 [main] DEBUG c.l.S.B.L.C.SpringBootLogbackConfigApplication - Running with Spring Boot v2.7.5, Spring v5.3.23
5988 [main] INFO  c.l.S.B.L.C.SpringBootLogbackConfigApplication - No active profile set, falling back to 1 default profile: "default"
10372 [main] INFO  o.s.b.w.e.tomcat.TomcatWebServer - Tomcat initialized with port(s): 8083 (http)
10401 [main] INFO  o.a.coyote.http11.Http11NioProtocol - Initializing ProtocolHandler ["http-nio-8083"]
10402 [main] INFO  o.a.catalina.core.StandardService - Starting service [Tomcat]
10402 [main] INFO  o.a.catalina.core.StandardEngine - Starting Servlet engine: [Apache Tomcat/9.0.68]
10865 [main] INFO  o.a.c.c.C.[.[localhost].[/logsdata] - Initializing Spring embedded WebApplicationContext
10865 [main] INFO  o.s.b.w.s.c.ServletWebServerApplicationContext - Root WebApplicationContext: initialization completed in 4643 ms
11985 [main] INFO  o.a.coyote.http11.Http11NioProtocol - Starting ProtocolHandler ["http-nio-8083"]
12192 [main] INFO  o.s.b.w.e.tomcat.TomcatWebServer - Tomcat started on port(s): 8083 (http) with context path '/logsdata'
12215 [main] INFO  c.l.S.B.L.C.SpringBootLogbackConfigApplication - Started SpringBootLogbackConfigApplication in 9.715 seconds (JVM running for 14.171)
94901 [http-nio-8083-exec-1] INFO  o.a.c.c.C.[.[localhost].[/logsdata] - Initializing Spring DispatcherServlet 'dispatcherServlet'
94901 [http-nio-8083-exec-1] INFO  o.s.web.servlet.DispatcherServlet - Initializing Servlet 'dispatcherServlet'
94903 [http-nio-8083-exec-1] INFO  o.s.web.servlet.DispatcherServlet - Completed initialization in 2 ms
95033 [http-nio-8083-exec-1] INFO  c.l.S.B.L.C.c.LogdataController - Added info log
95034 [http-nio-8083-exec-1] WARN  c.l.S.B.L.C.c.LogdataController - Added info warn
95035 [http-nio-8083-exec-1] ERROR c.l.S.B.L.C.c.LogdataController - Added info error
